80 1
21 1
45 1
87 2
151 2
41 2
64 2
68 3
75 4
3 5
18 5
94 7
142 7
13 7
151 9
74 9
14 10
145 11
37 11
110 12
135 12
22 12
36 13
45 13
64 13
30 14
95 15
2 15
28 15
35 15
62 16
146 17
42 18
186 19
18 20
58 21
75 22
84 23
16 24
51 24
66 24
128 25
56 25
138 26
25 27
48 29
177 30
59 30
109 31
29 31
121 33
52 33
70 33
9 34
117 36
8 36
21 36
27 36
62 37
2 38
110 39
3 39
7 41
16 41
141 43
32 45
130 46
89 47
19 47
44 47
140 49
99 50
3 51
45 51
64 54
176 55
146 56
9 56
51 56
117 57
150 57
166 57
50 58
58 59
163 60
65 60
124 61
190 62
148 63
63 63
80 65
1 65
103 68
73 68
188 69
7 69
52 72
62 72
126 73
111 74
79 75
84 76
48 76
27 77
103 79
73 79
86 80
102 80
38 82
106 83
173 85
76 85
57 86
55 87
63 87
142 89
185 89
118 91
189 91
24 91
40 91
21 92
77 92
161 93
187 93
19 93
117 95
144 96
13 97
34 97
30 99
59 99
143 100.3
2 100.3
10 100.3
39 100.3
68 100.3
83 101.3
122 101.3
131 101.3
191 101.3
46 101.3
89 102.3
150 102.3
103 103.3
145 103.3
3 103.3
15 103.3
31 103.3
56 103.3
73 103.3
96 104.3
141 104.3
29 104.3
75 104.3
13 105.3
17 105.3
34 105.3
49 105.3
61 105.3
63 105.3
163 106.3
12 106.3
26 106.3
47 106.3
24 107.3
44 107.3
52 107.3
88 109.3
180 109.3
20 109.3
73 109.3
85 110.3
123 110.3
164 110.3
170 110.3
4 110.3
25 110.3
41 110.3
48 110.3
81 111.3
1 111.3
8 111.3
10 111.3
42 111.3
53 111.3
91 112.3
100 112.3
140 112.3
109 113.3
25 113.3
60 113.3
74 113.3
95 114.3
38 114.3
75 114.3
152 115.3
0 115.3
7 115.3
45 115.3
59 115.3
73 115.3
122 116.3
163 116.3
168 116.3
172 116.3
180 116.3
16 116.3
62 116.3
72 116.3
76 116.3
102 117.3
111 117.3
113 117.3
153 117.3
3 117.3
19 117.3
50 117.3
70 117.3
132 118.3
136 118.3
173 118.3
24 118.3
36 118.3
63 118.3
85 119.3
185 119.3
191 119.3
9 119.3
77 119.3
118 120.3
17 121.3
91 122.3
65 122.3
18 123.3
89 124.3
92 124.3
110 124.3
169 124.3
182 124.3
22 124.3
33 124.3
56 124.3
66 124.3
69 124.3
96 125.3
99 125.3
109 125.3
140 125.3
199 125.3
14 125.3
35 125.3
108 126.3
112 126.3
134 126.3
163 127.3
61 127.3
79 127.3
13 128.3
34 128.3
80 129.3
84 129.3
131 129.3
38 129.3
40 129.3
72 129.3
102 130.3
107 130.3
137 130.3
167 130.3
176 130.3
186 130.3
2 130.3
19 130.3
56 130.3
74 130.3
159 131.3
188 131.3
192 131.3
15 131.3
23 131.3
24 131.3
26 131.3
49 131.3
57 131.3
78 131.3
105 132.3
114 132.3
100 133.3
3 133.3
60 133.3
98 134.3
63 134.3
4 135.3
22 135.3
50 135.3
194 136.3
71 136.3
113 137.3
150 137.3
164 137.3
177 137.3
21 137.3
96 138.3
134 138.3
170 138.3
14 138.3
25 138.3
45 138.3
48 138.3
64 138.3
68 138.3
32 139.3
92 140.3
11 140.3
26 140.3
62 140.3
129 141.3
179 141.3
52 141.3
55 141.3
79 141.3
136 143.3
18 143.3
39 143.3
56 143.3
125 144.3
160 144.3
0 144.3
17 144.3
34 144.3
78 144.3
97 145.3
155 145.3
166 145.3
182 145.3
187 145.3
14 145.3
35 145.3
57 145.3
74 145.3
87 146.3
118 146.3
20 146.3
33 146.3
113 147.3
156 147.3
15 147.3
24 147.3
56 147.3
65 147.3
139 148.3
94 149.3
41 149.3
46 149.3
50 149.3
69 149.3
71 149.3
77 149.3
109 150.3
3 150.3
18 150.3
40 150.3
45 150.3
79 150.3
98 151.3
134 151.3
167 151.3
176 151.3
19 151.3
38 151.3
47 151.3
112 152.3
123 152.3
177 152.3
192 152.3
0 152.3
25 152.3
48 152.3
53 152.3
58 152.3
59 152.3
61 152.3
147 153.3
16 153.3
59 154.3
159 155.3
68 155.3
126 156.3
169 156.3
184 156.3
71 156.3
108 157.3
120 157.3
144 157.3
9 157.3
21 157.3
31 157.3
64 157.3
67 157.3
143 158.3
164 158.3
196 158.3
0 158.3
79 158.3
16 159.3
24 159.3
121 160.3
194 160.3
20 160.3
46 160.3
187 161.3
10 161.3
11 161.3
73 161.3
152 162.3
13 162.3
139 163.3
143 163.3
27 163.3
35 163.3
37 163.3
75 163.3
88 164.3
100 164.3
104 164.3
153 164.3
162 164.3
167 164.3
9 164.3
17 164.3
32 164.3
38 164.3
39 164.3
45 164.3
77 164.3
145 165.3
30 165.3
60 165.3
65 165.3
66 165.3
81 166.3
151 166.3
159 166.3
189 166.3
11 166.3
22 166.3
26 166.3
41 166.3
110 167.3
126 167.3
178 167.3
180 167.3
95 168.3
106 168.3
113 168.3
43 168.3
89 169.3
101 169.3
137 169.3
163 169.3
15 169.3
50 169.3
58 169.3
102 170.3
185 170.3
197 170.3
198 170.3
7 170.3
47 170.3
53 170.3
63 170.3
138 171.3
140 171.3
144 171.3
173 171.3
191 171.3
9 171.3
11 171.3
16 171.3
20 171.3
77 171.3
123 172.3
175 172.3
0 172.3
6 172.3
27 172.3
40 172.3
19 173.3
45 173.3
61 173.3
34 175.3
55 175.3
169 176.3
38 176.3
68 176.3
111 177.3
113 177.3
123 177.3
164 177.3
181 177.3
199 177.3
32 177.3
48 177.3
50 177.3
81 178.3
91 178.3
135 178.3
150 178.3
51 178.3
136 179.3
179 179.3
195 179.3
31 179.3
35 179.3
53 179.3
167 180.3
189 180.3
192 180.3
52 180.3
69 180.3
86 181.3
95 181.3
99 181.3
94 182.3
107 182.3
78 182.3
151 183.3
171 183.3
8 183.3
28 183.3
45 183.3
75 183.3
84 184.3
143 184.3
172 184.3
193 184.3
0 184.3
13 184.3
40 184.3
129 185.3
184 185.3
61 185.3
72 185.3
152 186.3
197 186.3
11 186.3
168 187.3
50 187.3
126 188.3
5 188.3
9 188.3
49 188.3
133 189.3
54 189.3
131 190.3
160 190.3
187 190.3
190 190.3
3 190.3
14 190.3
22 190.3
42 190.3
55 190.3
77 190.3
89 191.3
96 191.3
118 191.3
148 191.3
154 191.3
181 191.3
23 191.3
31 191.3
38 191.3
41 191.3
52 191.3
59 191.3
78 191.3
90 192.3
19 192.3
32 192.3
174 193.3
80 195.3
113 195.3
193 195.3
101 196.3
177 196.3
45 196.3
88 197.3
135 197.3
141 197.3
170 197.3
186 197.3
196 197.3
28 197.3
123 198.3
153 198.3
175 198.3
6 198.3
12 198.3
15 198.3
20 198.3
26 198.3
64 198.3
115 199.3
161 199.3
68 199.3
54 202
63 202
35 203
22 204
106 205
184 205
1 207
129 210
4 210
157 211
74 211
23 212
35 213
77 215
26 216
142 217
60 218
79 221
19 222
66 222
144 223
147 223
18 223
40 224
78 224
152 225
197 225
198 225
26 225
105 226
47 227
59 228
24 229
166 230
46 231
69 232
144 233
28 236
100 237
116 238
6 238
90 239
56 239
43 240
134 241
18 242
53 242
57 242
131 243
6 244
24 246
48 247
71 247
104 248
108 248
151 248
66 248
15 249
38 249
68 249
55 250
19 253
70 253
13 254
34 258
27 259
181 260
73 260
41 261
45 261
55 261
3 262
35 262
76 262
87 264
139 264
179 264
28 265
36 265
60 265
12 269
38 270
27 271
52 271
160 272
42 272
144 274
13 274
24 275
82 276
69 276
76 276
63 277
86 279
39 279
187 280
93 283
184 283
149 284
174 284
62 285
97 289
146 289
65 289
32 291
153 292
40 292
1 293
8 293
198 294
85 295
90 295
147 295
52 296
194 297
104 298
126 299
161 299
65 299
163 300
47 300
