38 1
111 4
65 4
187 6
4 6
166 7
138 8
90 9
119 9
14 9
66 9
3 10
20 11
106 12
170 12
62 12
34 13
156 14
15 14
48 14
16 16
11 17
47 18
58 23
66 23
83 24
10 24
68 24
174 25
73 25
32 27
21 28
38 29
20 30
23 30
40 31
77 31
11 32
74 32
75 34
79 34
184 36
110 38
116 38
185 38
157 40
60 40
172 41
39 41
197 46
27 47
46 47
50 47
152 48
51 48
77 48
178 49
189 50
139 51
198 52
8 52
56 53
65 53
68 53
78 53
75 55
23 56
39 56
118 57
122 58
100 59
15 59
53 59
178 60
58 60
196 62
81 63
169 63
31 63
70 63
191 65
197 66
16 66
186 67
28 67
104 69
87 74
1 75
5 75
9 76
56 76
36 77
169 78
193 79
119 80
35 80
49 80
126 83
128 83
58 83
156 84
66 89
77 89
166 90
30 90
76 90
111 91
147 91
19 92
143 93
151 93
95 94
68 95
72 95
109 96
89 97
105 97
157 100
159 101
183 101
4 101
21 101
41 101
58 101
80 102
171 102
28 102
36 102
48 102
62 102
63 102
69 102
141 103
168 103
5 103
23 103
105 104
111 104
108 106
119 106
121 106
140 106
157 106
3 106
98 107
182 107
8 107
35 107
37 107
44 107
123 108
125 108
24 108
25 108
30 108
32 108
40 108
45 108
52 108
56 108
60 108
61 108
27 109
29 109
65 109
73 110
103 112
190 112
14 112
28 112
86 113
106 113
157 113
109 114
138 114
1 114
10 114
12 114
20 114
43 114
76 114
102 115
177 115
31 115
77 115
114 116
148 116
196 116
59 116
69 116
167 117
113 118
116 118
122 119
7 119
172 120
181 120
40 120
58 120
74 120
79 120
89 121
137 121
4 121
6 121
10 121
15 121
25 121
38 121
50 121
184 122
189 122
27 122
37 122
44 122
47 122
59 122
48 123
13 124
80 125
91 125
93 125
120 125
192 125
14 125
67 125
69 125
92 126
115 126
116 126
129 126
20 126
26 126
97 127
154 127
15 127
19 127
45 127
55 127
62 127
64 127
131 128
163 128
17 128
43 128
118 129
158 129
66 129
136 130
138 130
167 130
9 130
162 131
85 132
126 133
179 133
199 133
12 133
22 133
40 133
41 133
72 133
91 134
149 134
185 134
196 134
14 134
23 134
25 134
29 134
46 134
47 134
106 135
113 135
119 135
159 135
180 135
34 135
36 135
50 135
69 135
78 135
82 136
107 136
189 136
30 136
62 136
111 137
123 137
125 137
174 137
184 137
7 137
53 137
67 137
74 137
155 138
166 138
168 139
1 139
3 139
6 139
61 139
97 140
177 140
194 140
39 140
43 140
55 140
142 141
161 141
188 141
24 141
38 141
46 141
199 142
2 142
12 142
26 142
27 142
57 142
73 142
90 143
197 143
15 143
17 143
171 144
173 144
180 144
42 144
59 144
78 144
16 145
22 145
37 145
62 145
164 146
99 147
112 147
117 147
176 147
41 147
55 147
58 147
151 148
4 148
33 148
35 148
47 148
77 148
81 149
88 149
137 149
162 149
2 149
6 149
13 149
22 149
60 149
128 150
143 150
195 150
65 150
116 151
187 151
18 151
39 151
186 152
28 152
30 152
83 153
85 153
166 153
3 153
56 153
106 154
135 154
148 154
176 154
180 154
8 154
10 154
24 154
40 154
43 154
71 154
79 154
141 155
178 155
15 155
19 155
26 155
31 155
54 155
57 155
115 156
138 156
7 156
49 156
59 156
170 157
50 157
70 157
29 159
82 160
175 160
180 160
194 160
1 160
61 160
122 161
163 161
2 161
22 161
25 161
140 162
36 162
38 162
48 162
49 162
57 162
94 163
110 163
171 163
21 163
55 163
66 163
77 163
159 164
45 164
5 165
12 165
64 166
71 166
165 167
35 167
67 167
133 168
139 168
153 168
181 168
182 168
189 168
37 168
44 168
59 168
114 169
40 169
74 169
163 170
128 171
176 171
192 171
17 171
65 171
140 172
29 172
136 173
173 173
14 173
30 173
47 173
72 173
124 174
142 174
75 174
116 175
175 175
18 175
19 175
134 176
5 176
16 176
38 176
60 176
120 177
195 177
73 177
10 178
138 179
139 179
179 179
45 179
157 180
158 180
12 180
89 181
92 181
100 181
126 181
141 181
169 181
187 181
191 181
20 181
31 181
49 181
68 181
71 181
83 182
87 182
93 182
183 182
17 182
25 182
69 182
94 183
129 183
185 183
112 184
22 184
163 185
198 185
26 185
34 185
42 185
58 185
154 186
4 186
19 186
96 187
99 187
102 187
142 187
148 187
182 187
2 187
10 187
44 187
70 187
78 187
143 188
170 188
186 188
5 188
23 188
47 188
65 188
122 189
130 189
146 189
196 189
8 189
59 189
64 189
6 190
35 190
50 190
31 191
53 191
72 191
94 192
150 192
70 192
127 193
157 193
17 193
24 193
51 193
55 193
151 194
195 194
29 194
66 194
123 195
160 195
15 195
153 196
2 196
18 196
32 196
25 197
93 198
198 198
7 198
35 198
92 199
137 199
190 199
50 199
86 200
0 200
30 200
45 200
56 200
6 201
33 201
127 202
49 202
97 203
69 205
142 206
196 206
34 207
150 208
96 209
4 210
75 210
10 211
29 211
104 212
11 212
134 214
189 216
53 216
10 217
27 217
38 217
119 218
60 218
66 220
73 221
32 222
35 222
151 224
11 224
27 225
37 226
75 228
80 230
112 230
24 230
48 230
77 230
120 231
158 231
29 231
31 231
73 232
84 233
132 234
103 235
67 236
109 238
151 238
110 239
113 239
8 239
23 239
70 239
143 240
12 240
20 240
77 240
65 241
33 242
160 243
128 244
4 246
45 247
117 248
39 248
95 249
170 249
41 249
50 249
38 250
179 251
65 251
75 251
129 252
22 252
175 253
130 255
12 256
103 257
190 257
27 257
66 257
95 258
26 258
55 259
166 260
4 261
120 262
10 262
42 262
35 263
118 264
11 264
63 264
20 265
34 265
64 266
68 266
131 268
164 269
67 269
145 270
98 271
123 272
132 272
2 274
7 274
17 274
74 274
10 275
109 276
160 276
21 277
95 278
126 280
152 284
73 285
16 288
73 289
119 290
77 291
97 292
86 293
33 294
60 294
62 295
76 295
90 296
56 296
37 297
186 298
85 299
129 299
3 300
