1327 1
167 2
335 2
1332 3
782 5
2191 5
567 6
691 9
1219 9
1560 9
1977 10
2216 12
1386 12
64 13
1786 13
1069 14
1267 14
103 15
367 16
2200 16
2000 17
1936 17
1521 18
73 19
1455 19
414 20
697 20
1442 20
1543 20
1925 22
593 24
1743 24
2200 25
1597 25
1184 26
379 27
1173 27
1292 27
1324 27
768 29
1580 29
457 31
810 32
864 32
2077 32
1200 32
1801 32
2107 33
1403 33
1362 34
1710 34
2027 35
1327 35
975 36
1585 36
1586 36
1899 36
1917 36
370 37
1276 37
1323 37
83 38
661 40
1773 40
625 41
782 41
1920 43
387 45
216 46
1560 46
2038 47
1223 47
569 48
15 51
1848 51
817 52
135 53
270 53
1272 53
1472 53
1155 54
670 55
1521 55
35 56
759 57
1375 57
1299 58
1208 59
187 60
597 60
766 61
1560 61
1784 61
750 62
2054 62
2085 63
1220 63
787 64
650 65
2143 65
1515 65
425 66
867 66
2229 67
360 68
2103 68
2115 68
2150 68
1984 68
1975 70
337 71
1635 71
617 72
356 73
1722 74
143 76
836 76
1291 76
839 77
1679 77
1621 81
1146 82
2063 83
2142 83
2157 83
244 84
417 85
579 86
89 87
288 87
824 87
1299 87
567 90
758 91
1490 91
141 92
395 92
2129 92
1447 92
1494 92
2126 94
1339 94
2220 95
768 96
873 96
1158 96
1919 97
60 98
602 98
1501 98
750 99
1957 99
2095 100
1257 100
1375 100
1729 100
5 101
86 101
288 101
300 101
314 101
1651 101
2031 101
2066 101
89 102
142 102
1591 102
2147 102
150 103
248 103
322 103
353 103
381 103
449 103
495 103
549 103
619 103
680 103
845 103
848 103
861 103
1909 103
1976 103
1983 103
2222 103
75 104
84 104
95 104
98 104
249 104
272 104
307 104
579 104
603 104
1132 104
1510 104
1727 104
1773 104
1910 104
2048 104
83 105
114 105
121 105
183 105
184 105
215 105
260 105
290 105
352 105
376 105
432 105
505 105
613 105
1131 105
1187 105
1230 105
1498 105
1507 105
1679 105
1689 105
1744 105
1774 105
1980 105
1985 105
1989 105
2034 105
2040 105
10 106
24 106
41 106
111 106
514 106
1061 106
1170 106
1233 106
1376 106
1408 106
1415 106
1550 106
1558 106
1625 106
1693 106
1792 106
2169 106
2234 106
264 107
480 107
638 107
1010 107
1141 107
1477 107
1935 107
1974 107
2152 107
85 108
116 108
137 108
388 108
409 108
1255 108
1354 108
1500 108
1677 108
1745 108
1886 108
1981 108
74 109
209 109
267 109
531 109
890 109
1277 109
1432 109
1578 109
1686 109
1733 109
15 110
39 110
43 110
60 110
78 110
169 110
224 110
287 110
346 110
362 110
446 110
467 110
701 110
1236 110
1244 110
1961 110
1973 110
1978 110
122 111
236 111
240 111
258 111
455 111
481 111
543 111
595 111
630 111
677 111
700 111
1130 111
1190 111
1349 111
1364 111
1507 111
1610 111
1707 111
1771 111
1811 111
1995 111
2092 111
2204 111
2228 111
4 112
28 112
62 112
101 112
163 112
252 112
309 112
321 112
474 112
520 112
662 112
1250 112
1292 112
1429 112
1514 112
1736 112
1906 112
2029 112
2207 112
3 113
148 113
188 113
224 113
583 113
1284 113
1444 113
1758 113
1929 113
1977 113
2023 113
2054 113
2072 113
2208 113
23 114
106 114
136 114
206 114
368 114
499 114
1125 114
1176 114
1193 114
1228 114
1399 114
1438 114
1798 114
1950 114
2097 114
2181 114
66 115
141 115
207 115
306 115
385 115
582 115
926 115
973 115
1483 115
189 116
233 116
235 116
364 116
374 116
422 116
433 116
576 116
668 116
1252 116
1509 116
1751 116
1819 116
1971 116
20 117
72 117
161 117
259 117
266 117
413 117
419 117
470 117
509 117
574 117
589 117
806 117
1208 117
1244 117
1337 117
1599 117
1749 117
1839 117
1882 117
1903 117
1916 117
2020 117
2052 117
2069 117
2182 117
2233 117
8 118
171 118
192 118
275 118
313 118
325 118
372 118
407 118
466 118
485 118
510 118
512 118
721 118
764 118
804 118
1160 118
1185 118
1276 118
1316 118
1331 118
1366 118
1523 118
1577 118
1623 118
1721 118
1774 118
1940 118
112 119
154 119
294 119
567 119
717 119
955 119
1230 119
1383 119
1396 119
1820 119
1962 119
1982 119
2222 119
60 120
199 120
279 120
688 120
740 120
1513 120
1840 120
67 121
186 121
207 121
280 121
442 121
1484 121
1517 121
2056 121
2 122
36 122
54 122
248 122
633 122
1711 122
1952 122
2137 122
119 123
353 123
370 123
479 123
1117 123
1162 123
1196 123
1199 123
1468 123
1729 123
1770 123
2171 123
107 124
113 124
142 124
175 124
223 124
286 124
297 124
325 124
377 124
399 124
596 124
617 124
629 124
816 124
842 124
857 124
1148 124
1212 124
1329 124
1330 124
1428 124
1441 124
1532 124
1596 124
1679 124
1713 124
1718 124
1769 124
1789 124
1901 124
2113 124
2224 124
108 125
247 125
306 125
316 125
328 125
382 125
418 125
421 125
425 125
440 125
457 125
477 125
489 125
1578 125
1680 125
1855 125
1870 125
1949 125
1968 125
102 126
158 126
295 126
590 126
689 126
757 126
1457 126
1617 126
1703 126
1704 126
1764 126
1816 126
1902 126
1990 126
2091 126
2168 126
672 127
736 127
1270 127
1409 127
1434 127
1682 127
2051 127
2200 127
135 128
224 128
845 128
1571 128
1608 128
1668 128
2053 128
77 129
178 129
200 129
246 129
278 129
305 129
329 129
332 129
373 129
400 129
1107 129
1347 129
1693 129
1905 129
1953 129
65 130
201 130
253 130
287 130
322 130
336 130
697 130
728 130
1418 130
1472 130
1650 130
2221 130
39 131
57 131
83 131
85 131
101 131
215 131
221 131
320 131
326 131
361 131
375 131
395 131
461 131
623 131
742 131
776 131
783 131
872 131
1182 131
1217 131
1366 131
1431 131
1497 131
1603 131
1662 131
1684 131
1985 131
2078 131
2156 131
2232 131
79 132
150 132
159 132
274 132
330 132
345 132
483 132
490 132
683 132
722 132
1391 132
1450 132
1689 132
1818 132
1933 132
2149 132
2175 132
38 133
146 133
247 133
337 133
339 133
434 133
888 133
1207 133
1252 133
1332 133
1396 133
1400 133
1444 133
1543 133
1657 133
1770 133
1838 133
2096 133
2229 133
248 134
534 134
1213 134
1420 134
1494 134
1750 134
1880 134
1904 134
1916 134
2155 134
2169 134
2226 134
202 135
266 135
336 135
362 135
369 135
727 135
883 135
1161 135
1378 135
1466 135
1550 135
1975 135
1989 135
2125 135
444 136
456 136
830 136
907 136
1150 136
1269 136
1324 136
1397 136
1500 136
1837 136
2036 136
2045 136
2060 136
92 137
142 137
185 137
190 137
192 137
214 137
221 137
263 137
271 137
292 137
294 137
305 137
343 137
415 137
430 137
449 137
497 137
560 137
569 137
759 137
804 137
1619 137
1669 137
1731 137
1747 137
1790 137
36 138
114 138
165 138
181 138
186 138
199 138
224 138
262 138
285 138
301 138
335 138
355 138
400 138
511 138
631 138
639 138
674 138
779 138
856 138
1250 138
1454 138
1477 138
1615 138
1749 138
1817 138
1869 138
1988 138
1999 138
2122 138
132 139
218 139
264 139
298 139
316 139
399 139
507 139
545 139
730 139
794 139
826 139
1341 139
1472 139
1514 139
1612 139
1697 139
1728 139
1991 139
195 140
203 140
216 140
265 140
370 140
542 140
638 140
871 140
1442 140
1825 140
2162 140
2171 140
57 141
304 141
323 141
324 141
328 141
411 141
482 141
849 141
1142 141
1485 141
1517 141
1557 141
110 142
270 142
878 142
1328 142
1371 142
1374 142
1413 142
1476 142
1910 142
2130 142
2194 142
2225 142
31 143
156 143
219 143
228 143
290 143
338 143
396 143
441 143
443 143
469 143
603 143
642 143
748 143
762 143
1593 143
1676 143
1836 143
2179 143
76 144
143 144
183 144
200 144
213 144
231 144
246 144
297 144
346 144
366 144
466 144
467 144
479 144
480 144
501 144
851 144
1219 144
1237 144
1629 144
1662 144
1688 144
1723 144
1833 144
1857 144
1908 144
1914 144
2020 144
2114 144
2190 144
16 145
184 145
190 145
261 145
384 145
392 145
427 145
609 145
713 145
810 145
827 145
1195 145
1897 145
2014 145
2060 145
2083 145
2223 145
80 146
115 146
205 146
307 146
445 146
503 146
816 146
841 146
1548 146
1578 146
1682 146
1686 146
1753 146
1769 146
1999 146
2140 146
2156 146
220 147
321 147
615 147
1189 147
1346 147
1465 147
1478 147
1729 147
1820 147
2053 147
243 148
367 148
421 148
1240 148
1252 148
1781 148
1855 148
1871 148
2123 148
227 149
276 149
358 149
420 149
426 149
468 149
587 149
670 149
1215 149
1222 149
1322 149
1435 149
1487 149
1975 149
2039 149
2226 149
107 150
247 150
254 150
288 150
294 150
326 150
383 150
424 150
444 150
574 150
661 150
1230 150
1318 150
1718 150
1762 150
1791 150
1805 150
1957 150
1965 150
2001 150
2143 150
2215 150
122 151
143 151
175 151
214 151
372 151
388 151
414 151
442 151
499 151
517 151
604 151
792 151
850 151
934 151
965 151
1125 151
1140 151
1174 151
1368 151
1583 151
1608 151
1652 151
1704 151
1758 151
1981 151
2139 151
2169 151
2209 151
151 152
199 152
351 152
369 152
401 152
448 152
464 152
516 152
584 152
633 152
665 152
669 152
829 152
1268 152
1310 152
1479 152
1643 152
1657 152
1913 152
2078 152
2198 152
178 153
316 153
329 153
353 153
360 153
458 153
660 153
856 153
1343 153
1596 153
1801 153
1887 153
1928 153
2131 153
141 154
323 154
1285 154
168 155
381 155
457 155
1219 155
1385 155
1860 155
2126 155
123 156
241 156
450 156
480 156
1236 156
1274 156
1447 156
1883 156
1997 156
2039 156
2225 156
27 157
110 157
204 157
232 157
390 157
391 157
419 157
440 157
461 157
466 157
510 157
527 157
561 157
603 157
726 157
943 157
1154 157
1370 157
1526 157
1573 157
1742 157
1915 157
2132 157
11 158
97 158
133 158
290 158
293 158
295 158
357 158
359 158
402 158
456 158
463 158
557 158
589 158
1307 158
1337 158
1473 158
1515 158
1558 158
1761 158
1825 158
1886 158
1918 158
1991 158
2025 158
2049 158
2061 158
2205 158
170 159
301 159
355 159
380 159
394 159
550 159
572 159
578 159
591 159
607 159
644 159
1264 159
1366 159
1506 159
1815 159
242 160
362 160
386 160
547 160
716 160
754 160
1208 160
1220 160
1356 160
1871 160
1932 160
2089 160
192 161
286 161
289 161
600 161
647 161
771 161
826 161
1001 161
1222 161
1273 161
1316 161
2192 161
2222 161
2233 161
267 162
277 162
349 162
592 162
596 162
739 162
2001 162
181 163
209 163
331 163
427 163
433 163
496 163
553 163
674 163
736 163
769 163
1203 163
1272 163
1313 163
1688 163
1775 163
2003 163
4 164
146 164
358 164
378 164
396 164
504 164
626 164
641 164
781 164
1115 164
1123 164
1219 164
1343 164
1449 164
1609 164
1637 164
1882 164
2168 164
2190 164
212 165
308 165
312 165
364 165
371 165
569 165
594 165
598 165
635 165
673 165
720 165
945 165
1214 165
1563 165
1568 165
1631 165
1778 165
1878 165
1923 165
1927 165
1928 165
1941 165
1963 165
259 166
513 166
559 166
730 166
786 166
908 166
1217 166
1334 166
1966 166
2041 166
2128 166
2179 166
402 167
548 167
775 167
1283 167
1325 167
1706 167
1773 167
41 168
174 168
443 168
612 168
616 168
645 168
801 168
860 168
1276 168
1423 168
1480 168
1488 168
1636 168
1647 168
1666 168
1680 168
1881 168
238 169
332 169
414 169
415 169
508 169
532 169
1179 169
1401 169
187 170
197 170
293 170
461 170
492 170
525 170
603 170
630 170
658 170
698 170
704 170
1176 170
1191 170
1208 170
1230 170
1310 170
1478 170
1549 170
1702 170
1813 170
1866 170
1872 170
1959 170
25 171
51 171
161 171
254 171
273 171
285 171
313 171
365 171
434 171
435 171
479 171
481 171
514 171
516 171
564 171
607 171
661 171
719 171
745 171
1016 171
1360 171
1455 171
1519 171
1557 171
1574 171
1603 171
1784 171
2008 171
2062 171
2127 171
2136 171
2166 171
136 172
377 172
480 172
509 172
533 172
562 172
780 172
825 172
1127 172
1270 172
1487 172
1518 172
1550 172
1727 172
1775 172
1870 172
1929 172
1958 172
19 173
64 173
158 173
270 173
376 173
441 173
517 173
523 173
541 173
565 173
1466 173
1533 173
2088 173
2 174
110 174
114 174
542 174
546 174
551 174
573 174
684 174
1492 174
1633 174
2072 174
2230 174
144 175
205 175
314 175
531 175
555 175
670 175
712 175
985 175
1160 175
1352 175
1658 175
1731 175
1786 175
1882 175
2231 175
240 176
289 176
535 176
671 176
1665 176
1677 176
1763 176
1834 176
2085 176
16 177
227 177
343 177
428 177
528 177
642 177
652 177
684 177
705 177
1032 177
1389 177
1402 177
1482 177
1498 177
1542 177
1567 177
1606 177
1678 177
1894 177
1995 177
33 178
338 178
377 178
448 178
469 178
484 178
487 178
518 178
611 178
628 178
645 178
667 178
682 178
769 178
791 178
797 178
887 178
1151 178
1223 178
1235 178
1259 178
1339 178
1348 178
1615 178
1617 178
1627 178
1704 178
1792 178
1859 178
1873 178
1895 178
1907 178
2108 178
2110 178
194 179
554 179
580 179
601 179
602 179
624 179
725 179
829 179
1212 179
1385 179
1717 179
1739 179
1937 179
2175 179
2238 179
537 180
545 180
590 180
666 180
672 180
793 180
851 180
1466 180
1614 180
1878 180
1938 180
277 181
389 181
466 181
498 181
505 181
509 181
534 181
581 181
633 181
673 181
703 181
715 181
745 181
1530 181
1862 181
1942 181
2038 181
2095 181
2116 181
126 182
304 182
424 182
494 182
513 182
644 182
653 182
728 182
917 182
1113 182
1313 182
1316 182
2069 182
2119 182
2215 182
2223 182
236 183
282 183
420 183
567 183
579 183
1286 183
1778 183
1805 183
1949 183
2156 183
43 184
384 184
441 184
461 184
462 184
610 184
756 184
842 184
877 184
1001 184
1154 184
1486 184
1502 184
1507 184
1509 184
1544 184
1557 184
1570 184
1625 184
1660 184
1690 184
1817 184
1913 184
2134 184
2150 184
44 185
148 185
173 185
253 185
310 185
334 185
346 185
499 185
500 185
573 185
584 185
598 185
618 185
639 185
695 185
710 185
762 185
792 185
826 185
838 185
1241 185
1246 185
1269 185
1294 185
1304 185
1451 185
1506 185
1566 185
1658 185
1850 185
2081 185
69 186
552 186
658 186
669 186
830 186
841 186
889 186
1206 186
1308 186
1532 186
1831 186
1907 186
376 187
648 187
683 187
739 187
790 187
1305 187
1516 187
1564 187
1705 187
2166 187
498 188
559 188
604 188
676 188
864 188
1160 188
1192 188
1279 188
1363 188
2096 188
99 189
334 189
650 189
653 189
707 189
837 189
860 189
868 189
1419 189
1424 189
1605 189
1647 189
1696 189
1945 189
2064 189
2223 189
171 190
474 190
570 190
630 190
667 190
679 190
744 190
980 190
1133 190
1268 190
1276 190
1438 190
1473 190
1567 190
1769 190
1893 190
2094 190
22 191
145 191
235 191
238 191
298 191
332 191
479 191
481 191
482 191
495 191
513 191
531 191
564 191
585 191
612 191
632 191
638 191
645 191
686 191
692 191
699 191
720 191
781 191
816 191
879 191
1074 191
1149 191
1320 191
1327 191
1372 191
1457 191
1480 191
1732 191
1921 191
1923 191
1955 191
1995 191
2060 191
2092 191
100 192
415 192
484 192
545 192
568 192
577 192
715 192
799 192
1086 192
1379 192
1392 192
1478 192
1581 192
1665 192
1780 192
2021 192
2022 192
2157 192
2193 192
86 193
307 193
475 193
603 193
613 193
617 193
675 193
808 193
828 193
1125 193
1136 193
1281 193
1591 193
1755 193
1816 193
1973 193
2009 193
2054 193
468 194
497 194
512 194
624 194
663 194
713 194
800 194
848 194
1288 194
1299 194
1507 194
1630 194
1692 194
1853 194
1904 194
2056 194
597 195
601 195
775 195
823 195
1558 195
1773 195
1889 195
2071 195
290 196
400 196
528 196
553 196
574 196
579 196
584 196
622 196
809 196
1399 196
1412 196
1488 196
1737 196
1846 196
1867 196
2102 196
2153 196
22 197
28 197
79 197
122 197
353 197
373 197
442 197
464 197
511 197
551 197
627 197
633 197
653 197
665 197
818 197
871 197
936 197
1126 197
1221 197
1571 197
1651 197
1748 197
1868 197
1911 197
2053 197
2119 197
2189 197
2221 197
2239 197
70 198
104 198
195 198
232 198
267 198
296 198
385 198
443 198
685 198
690 198
774 198
870 198
887 198
1083 198
1181 198
1343 198
1435 198
1459 198
1466 198
1511 198
1547 198
1576 198
1641 198
1698 198
1713 198
1840 198
1886 198
2113 198
2137 198
157 199
215 199
241 199
466 199
514 199
695 199
874 199
1166 199
1199 199
1222 199
1745 199
2196 199
16 200
107 200
757 200
776 200
1241 200
1609 200
1633 200
1648 200
1685 200
1782 200
310 201
1422 201
1778 201
80 202
1600 202
1727 202
2021 203
446 204
636 204
1611 204
220 206
286 206
2181 206
1944 206
1361 207
1238 208
158 210
173 211
834 211
1967 213
104 214
676 214
359 215
2142 215
1912 215
264 216
117 217
2152 218
217 219
329 219
405 219
873 219
1731 220
1892 220
1907 220
2129 222
1193 223
343 224
422 224
2026 224
2028 224
2145 224
1357 224
1600 224
66 227
524 227
1717 227
1963 228
1896 229
2234 230
366 231
142 232
479 232
2034 232
1157 232
1417 232
1546 232
689 234
1477 235
1681 235
1364 236
1962 236
165 237
1768 237
527 238
1253 238
440 240
1791 242
2084 243
1215 243
46 244
841 244
1268 245
1280 247
1185 250
368 251
1720 251
1729 251
45 252
270 252
384 252
1868 252
241 253
403 255
398 256
683 256
1427 256
422 257
1148 257
532 258
1365 259
1454 259
1731 259
1269 260
206 261
313 261
1348 261
1955 261
2051 263
1328 264
1768 264
1907 264
1433 265
1382 267
1756 267
193 268
115 270
241 270
359 270
2072 270
2171 271
387 272
819 272
1455 272
1515 272
1869 272
124 273
483 276
1111 276
1334 276
248 277
1395 277
2212 279
1167 280
1993 280
224 281
255 281
912 281
1164 281
1794 281
1143 282
1338 282
9 283
817 283
1875 283
1878 285
2015 286
1443 286
267 287
1516 287
202 288
284 288
1404 288
1679 289
811 291
1553 291
11 292
588 292
412 293
732 293
1300 293
1393 293
609 294
1162 294
1292 294
1482 294
1619 294
805 295
1612 295
302 296
384 296
229 297
583 297
82 298
1523 298
2067 299
2112 299
1760 299
